…
# now there are 2 value columns (for original var, and y2y_diff version); 
# we can make it wide as is, but then have to fix some columns names ("value_")
dv_semi_long
```

    ## # A tibble: 48,720 x 5
    ## # Groups:   gwcode, variable [1,044]
    ##    gwcode  year variable          value diff_y2y
    ##     <dbl> <dbl> <chr>             <dbl>    <dbl>
    ##  1      2  1968 v2x_freexp_altinf 0.858  0      
    ##  2      2  1969 v2x_freexp_altinf 0.886  0.028  
    ##  3      2  1970 v2x_freexp_altinf 0.89   0.004  
    ##  4      2  1971 v2x_freexp_altinf 0.867 -0.023  
    ##  5      2  1972 v2x_freexp_altinf 0.884  0.017  
    ##  6      2  1973 v2x_freexp_altinf 0.908  0.024  
    ##  7      2  1974 v2x_freexp_altinf 0.924  0.016  
    ##  8      2  1975 v2x_freexp_altinf 0.93   0.006  
    ##  9      2  1976 v2x_freexp_altinf 0.938  0.00800
    ## 10      2  1977 v2x_freexp_altinf 0.936 -0.00200
    ## # … with 48,710 more rows

``` r
# make wide again
dv_with_diffs <- dv_semi_long %>%
  pivot_wider(names_from = variable, values_from = c(value, diff_y2y)) %>%
  arrange(gwcode, year) %>%
  # take out "value_" prefix
  setNames(names(.) %>% str_replace("value_", "")) %>%
  # move "diff_y2y_" prefix to "_diff_y2y" suffix
  setNames(names(.) %>% str_replace("diff_y2y_([a-z0-9\\_]+)", "\\1_diff_y2y"))
  
dv_with_diffs
```

    ## # A tibble: 8,120 x 14
    ## # Groups:   gwcode [174]
    ##    gwcode  year v2x_freexp_alti… v2x_horacc_osp v2x_pubcorr v2x_veracc_osp
    ##     <dbl> <dbl>            <dbl>          <dbl>       <dbl>          <dbl>
    ##  1      2  1968            0.858          0.906       0.917          0.852
    ##  2      2  1969            0.886          0.906       0.917          0.853
    ##  3      2  1970            0.89           0.912       0.941          0.866
    ##  4      2  1971            0.867          0.912       0.962          0.866
    ##  5      2  1972            0.884          0.911       0.962          0.864
    ##  6      2  1973            0.908          0.953       0.962          0.865
    ##  7      2  1974            0.924          0.955       0.962          0.873
    ##  8      2  1975            0.93           0.955       0.962          0.891
    ##  9      2  1976            0.938          0.955       0.962          0.904
    ## 10      2  1977            0.936          0.948       0.962          0.908
    ## # … with 8,110 more rows, and 8 more variables: v2xcl_rol <dbl>,
    ## #   v2xcs_ccsi <dbl>, v2x_freexp_altinf_diff_y2y <dbl>,
    ## #   v2x_horacc_osp_diff_y2y <dbl>, v2x_pubcorr_diff_y2y <dbl>,
    ## #   v2x_veracc_osp_diff_y2y <dbl>, v2xcl_rol_diff_y2y <dbl>,
    ## #   v2xcs_ccsi_diff_y2y <dbl>
…
