…
    ## Classes 'spec_tbl_df', 'tbl_df', 'tbl' and 'data.frame': 7512 obs. of  3 variables:
    ##  $ gwcode      : num  2 2 2 2 2 2 2 2 2 2 ...
    ##  $ year        : num  1972 1973 1974 1975 1976 ...
    ##  $ lag2_infmort: num  19.9 19.1 18.3 17.5 16.7 15.9 15.2 14.5 13.8 13.2 ...

Check missing cases.

``` r
cy_temp <- left_join(cy, infmort, by = c("gwcode", "year"))
tbl <- filter(cy_temp, is.na(lag2_infmort)) %>% select(gwcode, year, lag2_infmort)
tbl
```

    ## # A tibble: 385 x 3
    ##    gwcode  year lag2_infmort
    ##     <dbl> <dbl>        <dbl>
    ##  1      2  1970           NA
    ##  2      2  1971           NA
    ##  3     20  1970           NA
    ##  4     20  1971           NA
    ##  5     40  1970           NA
    ##  6     40  1971           NA
    ##  7     41  1970           NA
    ##  8     41  1971           NA
    ##  9     42  1970           NA
    ## 10     42  1971           NA
    ## # … with 375 more rows
…
Check missing cases.

``` r
cy_temp <- left_join(cy, arch, by = c("gwcode", "year"))
tbl <- filter(cy_temp, is.na(lag1_ldr_age)) %>% select(gwcode, year, lag1_ldr_age)
tbl
```

    ## # A tibble: 40 x 3
    ##    gwcode  year lag1_ldr_age
    ##     <dbl> <dbl>        <dbl>
    ##  1    115  1975           NA
    ##  2    316  1993           NA
    ##  3    317  1993           NA
    ##  4    340  2006           NA
    ##  5    341  2006           NA
    ##  6    343  1991           NA
    ##  7    344  1992           NA
    ##  8    346  1992           NA
    ##  9    347  2008           NA
    ## 10    349  1992           NA
    ## # … with 30 more rows
…
